100000 DATA      HORA
000001 2015-08-0108:00:00
200000 DATA      VENDEDOR               MUNICIPIO                      VENDIDO
000002 2015-08-01AGROT                  SAO JOSE DO CERRITO             20.857,20
000002 2015-08-01LUBRILAGEST            LAGES                              199,28
000002 2015-08-01NOVOLUBRIT             PAINEL                             273,68
000002 2015-08-01AGROT                  WITMARSUM                        1.800,00
000002 2015-08-01FLAVIO BT              ERVAL GRANDE                     5.214,73
000002 2015-08-01FLAVIO BT              FREDERICO WESTPHALEN             3.090,81
000002 2015-08-01FLAVIO BT              GAURAMA                          2.164,46
000002 2015-08-01FLAVIO BT              GIRUA                            1.058,83
000002 2015-08-01FLAVIO BT              NONOAI                           2.980,39
000002 2015-08-01FLAVIO BT              LONDRINA                         3.792,14
000002 2015-08-01FLAVIO BT              GUARDA DO EMBAU                  2.746,56
